{
  "images": [
    {
      "id": 19602538,
      "name": "1153.4.0 (beta)",
      "distribution": "CoreOS",
      "slug": "coreos-beta",
      "public": true,
      "regions": [
        "nyc1",
        "sfo1",
        "nyc2",
        "ams2",
        "sgp1",
        "lon1",
        "nyc3",
        "ams3",
        "fra1",
        "tor1",
        "sfo2",
        "blr1"
      ],
      "created_at": "2016-09-10T18:06:25Z",
      "min_disk_size": 20,
      "type": "snapshot",
      "size_gigabytes": 0.31
    },
    {
      "id": 6372321,
      "name": "5.10 x64",
      "distribution": "CentOS",
      "slug": null,
      "public": true,
      "regions": [
        "nyc1",
        "ams1",
        "sfo1",
        "nyc2",
        "ams2",
        "sgp1",
        "lon1",
        "nyc3",
        "ams3",
        "fra1",
        "tor1"
      ],
      "created_at": "2014-09-26T16:40:18Z",
      "min_disk_size": 20,
      "type": "snapshot",
      "size_gigabytes": 1.34
    }
  ],
  "links": {
    "pages": {
      "last": "https://api.digitalocean.com/v2/images?page=4",
      "next": "https://api.digitalocean.com/v2/images?page=2"
    }
  },
  "meta": {
    "total": 71
  }
}
